Date,AHU COP
08/25/2019 6:00, 3 
08/25/2019 5:00, 3 
08/25/2019 4:00, 3 
08/25/2019 3:00, 3 
08/25/2019 2:00, 3 
08/25/2019 1:00, 3 
08/25/2019 0:00, 3 
08/24/2019 23:00, 3 
08/24/2019 22:00, 3 
08/24/2019 21:00, 3 
08/24/2019 20:00, 3 
08/24/2019 19:00, 3 
08/24/2019 18:00, 3 
08/24/2019 17:00, 4 
08/24/2019 16:00, 4 
08/24/2019 15:00, 4 
08/24/2019 14:00, 4 
08/24/2019 13:00, 4 
08/24/2019 12:00, 4 
08/24/2019 11:00, 4 
08/24/2019 10:00, 4 
08/24/2019 9:00, 4 
08/24/2019 8:00, 4 
08/24/2019 7:00, 4 
08/24/2019 6:00, 3 
08/24/2019 5:00, 3 
08/24/2019 4:00, 3 
08/24/2019 3:00, 3 
08/24/2019 2:00, 3 
08/24/2019 1:00, 3 
08/24/2019 0:00, 3 
08/23/2019 23:00, 3 
08/23/2019 22:00, 3 
08/23/2019 21:00, 3 
08/23/2019 20:00, 3 
08/23/2019 19:00, 3 
08/23/2019 18:00, 3 
08/23/2019 17:00, 4 
08/23/2019 16:00, 4 
08/23/2019 15:00, 4 
08/23/2019 14:00, 4 
08/23/2019 13:00, 4 
08/23/2019 12:00, 4 
08/23/2019 11:00, 4 
08/23/2019 10:00, 4 
08/23/2019 9:00, 4 
08/23/2019 8:00, 4 
08/23/2019 7:00, 4 
08/23/2019 6:00, 3 
08/23/2019 5:00, 3 
08/23/2019 4:00, 3 
08/23/2019 3:00, 3 
08/23/2019 2:00, 3 
08/23/2019 1:00, 3 
08/23/2019 0:00, 3 
08/22/2019 23:00, 3 
08/22/2019 22:00, 3 
08/22/2019 21:00, 3 
08/22/2019 20:00, 3 
08/22/2019 19:00, 3 
08/22/2019 18:00, 3 
08/22/2019 17:00, 4 
08/22/2019 16:00, 4 
08/22/2019 15:00, 4 
08/22/2019 14:00, 4 
08/22/2019 13:00, 4 
08/22/2019 12:00, 4 
08/22/2019 11:00, 4 
08/22/2019 10:00, 4 
08/22/2019 9:00, 4 
08/22/2019 8:00, 4 
08/22/2019 7:00, 4 
08/22/2019 6:00, 3 
08/22/2019 5:00, 3 
08/22/2019 4:00, 3 
08/22/2019 3:00, 3 
08/22/2019 2:00, 3 
08/22/2019 1:00, 3 
08/22/2019 0:00, 3 
08/21/2019 23:00, 3 
08/21/2019 22:00, 3 
08/21/2019 21:00, 3 
08/21/2019 20:00, 3 
08/21/2019 19:00, 3 
08/21/2019 18:00, 3 
08/21/2019 17:00, 4 
08/21/2019 16:00, 4 
08/21/2019 15:00, 4 
08/21/2019 14:00, 4 
08/21/2019 13:00, 4 
08/21/2019 12:00, 4 
08/21/2019 11:00, 4 
08/21/2019 10:00, 4 
08/21/2019 9:00, 4 
08/21/2019 8:00, 4 
08/21/2019 7:00, 4 
08/21/2019 6:00, 3 
08/21/2019 5:00, 3 
